# Blender v2.70 (sub 0) OBJ File: ''
# www.blender.org
v 0.000000 -1.040000 1.000001
v 0.202894 -1.020016 1.000001
v 0.397991 -0.960834 1.000001
v 0.577793 -0.864728 1.000000
v 0.735391 -0.735391 1.000000
v 0.864728 -0.577793 1.000000
v 0.960835 -0.397990 1.000000
v 1.020017 -0.202894 1.000000
v 1.040000 0.000000 1.000000
v 1.020017 0.202894 1.000000
v 0.960835 0.397991 1.000000
v 0.864728 0.577793 1.000000
v 0.000000 -0.000000 0.000000
v 0.735391 0.735391 1.000000
v 0.577793 0.864729 0.999999
v 0.397991 0.960835 0.999999
v 0.202894 1.020017 0.999999
v -0.000000 1.040000 0.999999
v -0.202894 1.020017 0.999999
v -0.397991 0.960835 0.999999
v -0.577794 0.864728 0.999999
v -0.735391 0.735391 1.000000
v -0.864729 0.577793 1.000000
v -0.960835 0.397990 1.000000
v -1.020017 0.202893 1.000000
v -1.040000 -0.000001 1.000000
v -1.020016 -0.202895 1.000000
v -0.960834 -0.397992 1.000000
v -0.864728 -0.577794 1.000000
v -0.735390 -0.735392 1.000000
v -0.577792 -0.864729 1.000000
v -0.397989 -0.960835 1.000001
v -0.202892 -1.020017 1.000001
vn -0.357738 -0.863704 0.354930
vn 0.000000 0.000000 -1.000000
vn -0.182379 -0.916898 0.354930
vn 0.000000 -0.934874 0.354930
vn 0.182379 -0.916898 0.354930
vn -0.519395 -0.777306 0.354930
vn -0.661061 -0.661061 0.354930
vn -0.777306 -0.519395 0.354930
vn -0.863704 -0.357738 0.354930
vn -0.916898 -0.182379 0.354930
vn -0.934874 0.000000 0.354930
vn -0.916898 0.182379 0.354930
vn -0.863704 0.357738 0.354930
vn -0.777306 0.519395 0.354930
vn -0.661061 0.661061 0.354930
vn -0.519395 0.777306 0.354930
vn -0.357738 0.863704 0.354930
vn -0.182379 0.916898 0.354930
vn 0.000000 0.934874 0.354930
vn 0.182379 0.916898 0.354930
vn 0.357738 0.863704 0.354930
vn 0.519395 0.777306 0.354930
vn 0.661061 0.661061 0.354930
vn 0.777306 0.519395 0.354930
vn 0.863704 0.357738 0.354930
vn 0.916898 0.182379 0.354930
vn 0.934874 0.000000 0.354930
vn 0.916898 -0.182379 0.354930
vn 0.863704 -0.357738 0.354930
vn 0.777306 -0.519364 0.354930
vn 0.661061 -0.661061 0.354930
vn 0.519395 -0.777306 0.354930
vn 0.357738 -0.863704 0.354930
s 1
f 32//1 13//2 33//3
f 1//4 13//2 2//5
f 31//6 13//2 32//1
f 30//7 13//2 31//6
f 29//8 13//2 30//7
f 28//9 13//2 29//8
f 27//10 13//2 28//9
f 26//11 13//2 27//10
f 25//12 13//2 26//11
f 24//13 13//2 25//12
f 23//14 13//2 24//13
f 22//15 13//2 23//14
f 21//16 13//2 22//15
f 20//17 13//2 21//16
f 19//18 13//2 20//17
f 18//19 13//2 19//18
f 17//20 13//2 18//19
f 16//21 13//2 17//20
f 15//22 13//2 16//21
f 14//23 13//2 15//22
f 12//24 13//2 14//23
f 11//25 13//2 12//24
f 10//26 13//2 11//25
f 9//27 13//2 10//26
f 8//28 13//2 9//27
f 7//29 13//2 8//28
f 6//30 13//2 7//29
f 5//31 13//2 6//30
f 4//32 13//2 5//31
f 3//33 13//2 4//32
f 33//3 13//2 1//4
f 2//5 13//2 3//33
f 28//9 29//8 30//7
f 33//3 1//4 2//5
f 6//30 3//33 5//31
f 8//28 9//27 7//29
f 10//26 11//25 9//27
f 3//33 4//32 5//31
f 12//24 14//23 15//22
f 15//22 16//21 17//20
f 17//20 18//19 19//18
f 21//16 33//3 20//17
f 21//16 22//15 23//14
f 23//14 24//13 25//12
f 25//12 26//11 27//10
f 28//9 30//7 33//3
f 31//6 33//3 30//7
f 31//6 32//1 33//3
f 3//33 6//30 7//29
f 25//12 27//10 28//9
f 15//22 17//20 33//3
f 15//22 33//3 7//29
f 2//5 3//33 33//3
f 21//16 23//14 25//12
f 25//12 28//9 33//3
f 33//3 17//20 19//18
f 11//25 15//22 7//29
f 25//12 33//3 21//16
f 3//33 7//29 33//3
f 11//25 12//24 15//22
f 9//27 11//25 7//29
f 33//3 19//18 20//17
